1 1 1
1 10 20
1 998 179
1 999 179
1 1000 179
1 999999 525
999999 1 525
999999 999999 259
999999 999990 259
998000 999999 396
998001 999999 396
997899 999999 396
162283 256218 443
959018 608918 525
421874 919881 525
99208 387034 443
192931 441696 449
686013 529057 509
268423 922918 525
458009 1384 449
679861 197601 509
700813 19444 509
864146 295600 525
426067 951748 525
739511 302207 509
234772 961972 525
639720 431021 509
687171 49644 509
722539 219748 509
733547 53077 509
191706 594932 470
427252 487061 444
454385 485814 444
286468 463989 449
584231 298484 470
631040 99991 509
985191 411708 525
752096 753014 318
866423 213627 525
185624 119823 383
4727 704991 509
957169 489664 525
845440 436924 525
405661 987014 525
973685 750787 525
834093 538383 509
235714 121130 443
347482 881091 525
524677 555668 452
628205 769317 504
605075 686196 509
671064 328361 509
793318 402282 509
487217 687444 509
932563 691836 525
863274 970860 507
261494 469424 449
999583 400286 525
844298 586418 525
351819 969930 525
297252 953161 525
183251 292086 443
378035 8438 443
210633 732471 509
777883 108670 509
489726 491761 320
17896 547556 470
720157 159389 509
781743 192551 509
379829 190858 443
243605 983701 525
443595 595372 470
162658 917006 525
985588 14661 525
833409 861035 525
895846 981953 507
291626 958457 525
13476 593335 470
475183 160358 449
491161 726251 509
508571 335795 449
174670 889365 525
433980 425043 387
274421 537956 470
587645 434986 470
543202 922448 525
413334 183682 449
640956 545012 509
305398 10199 443
978266 426276 525
752107 916238 525
358817 8906 443
978018 764811 525
242369 348167 441
549556 807085 509
277648 306186 389
999621 342814 525
994129 153657 525
384262 646694 509
57983 177373 383
627914 295411 509
216734 437953 449
802215 164944 509
798087 969681 525
151313 921850 525
249052 179677 443
647014 411583 509
159876 531068 470
955177 910205 507
485105 467032 413
250773 615504 470
11242 428735 449
39157 516613 470
489381 256661 449
923408 941815 507
844567 655301 525
255044 427984 449
169698 126008 383
929122 833190 525
391635 904127 525
568770 983606 525
672720 590812 509
833006 151714 509
663234 951577 525
360282 55865 443
581436 733984 509
351701 150287 443
781490 894068 525
467730 534714 470
241317 177112 443
95072 264184 443
393683 230820 441
550337 16367 470
976761 703126 525
971366 767647 525
506782 824376 509
392083 428402 449
534821 502146 470
146454 461541 449
892185 827898 525
497821 536103 470
224137 832837 509
872154 649763 525
955119 558972 525
916909 850536 476
94600 622143 470
814871 934396 525
311367 244430 407
716746 887587 525
527911 310623 470
729947 474984 509
19887 729026 509
979293 375423 525
994540 556647 525
914540 263455 525
298785 221431 443
682664 417776 509
314222 723929 509
110195 573999 470
483991 179687 449
909372 741730 525
268341 569200 470
123767 633341 509
112696 865807 525
626599 486775 509
77280 33392 351
940304 712946 525
43414 245467 443
161268 664184 509
896337 551885 525
545232 74625 470
916715 38492 525
761905 929866 525
127079 703659 509
241658 960107 525
289808 106473 443
20819 568930 470
627073 989753 525
576874 193808 470
979929 225389 525
139969 984598 525
503075 14442 449
618136 196546 470
584271 747679 509
304610 579133 470
680474 832765 504
623853 351383 470
11048 521818 470
717797 514343 509
802053 220484 509
982832 679578 525
155485 659241 509
232757 197717 443
632823 528365 509
734956 801101 468
412266 888631 525
406590 932744 525
129952 347209 443
246600 673932 509
416567 758227 509
