1 10 20
100 200 125
201 210 89
900 1000 174
10 1 20
-1 10 invalid
1 1 1
2 4 8
888 990 174
23000 32000 308
65 56 108
789 45666 324
12345 45321 324
45000 34000 324
5768 7898 262
999999 999999 259
78 87 111
4565 4564 109
1254 7897 262
45456 48888 314
897 5000 238
454645 789878 509
52 34 110
19750 69969 340
95684 38732 351
4069 44601 324
65633 881 340
61561 14337 340
24328 64112 340
96964 55765 351
35555 24013 311
33117 99889 351
3571 36844 324
46031 37432 314
78625 8700 351
60935 3457 340
12633 72300 340
7495 33752 308
9567 81810 351
57733 64793 335
76517 65706 325
95536 97764 297
93512 26230 351
28990 45586 324
12940 16 268
81356 29498 351
95441 26959 351
57239 15475 340
87953 20932 351
91935 77529 338
4583 98868 351
42097 34926 324
24809 24701 264
95591 88977 333
12401 84472 351
43340 29624 324
38860 8959 324
4917 491700 449
69 69 15
82938 666666 509
17 7 20
27 72 113
9 38 112
67001 67000 69
91 744 171
73 23 116
82 42 116
23 342 144
7 12 20
6047 8475 262
6292 4777 262
8527 4077 262
1138 7044 262
44 90 116
3 10 20
9 3 20
748123 748033 318
930036 929896 264
982165 982843 383
806280 806281 70
379341 379868 361
155281 158691 383
854261 855194 357
827665 827456 419
806029 805322 375
276791 280194 389
655238 655329 292
358577 358839 348
842747 844169 388
1742 8281 262
2381 5682 238
2976 1926 217
7266 3170 262
8863 7605 252
3716 2953 238
2045 6671 262
2088 6636 262
6314 2732 262
9372 5394 262
1850 8 182
7048 2664 262
