1 10 20
100 200 125
201 210 89
900 1000 174
1 26 24
1 19 21
5 10 20
5 5 6
5 5 6
7 8 17
9 9999 262
1 10000 262
600 500 137
1000 7000 262
300 9000 262
10000 700 262
1 1 1
20 100 119
1 10 20
10000 10000 30
500 1 144
53 232 128
536 928 179
455 822 171
87 251 128
1 30 112
58 147 122
8 44 112
5 141 122
61 81 116
1 19 21
29 37 107
5 46 112
9 80 116
34 52 110
49 75 116
8 47 112
9 84 116
20 61 113
6 55 113
54 70 113
54 78 116
20 39 112
3 89 116
15 31 112
1 73 116
5 14 20
2 39 112
63 79 116
15 37 112
9 37 112
3 77 116
20 59 113
7 19 21
5 69 113
1 18 21
10 22 21
19 90 116
16 54 113
19 25 24
24 29 112
83 95 111
19 54 113
49 89 116
5 15 20
20 1 21
12 70 113
4 67 113
89 100 119
344 455 134
34 67 113
899 1000 174
7 14 20
21 87 116
99 100 26
43 101 119
100 1000 179
34 188 125
1 2 2
1 7 17
2 87 116
4 63 113
8 76 116
78 89 111
91 100 119
40 177 125
6 13 20
4 7 17
7 4 17
16 17 13
32 87 116
100 235 128
213 617 144
121 122 96
54 234 128
5 10 20
44 261 128
21 23 16
45 127 119
47 56 113
100 300 128
