.....................
----------------------------------------------------------------------
Ran 21 tests in 0.560s

OK
Name             Stmts   Miss Branch BrPart  Cover   Missing
------------------------------------------------------------
Collatz.py          31      0     14      0   100%
TestCollatz.py      89      0      0      0   100%
------------------------------------------------------------
TOTAL              120      0     14      0   100%
